/home/dtiadj2/estudo-serpro/aplicacao/java/java-sistema-kanban/src/main/java/com/estudoserpro/model/AbstractConexaoDatabase.java
/home/dtiadj2/estudo-serpro/aplicacao/java/java-sistema-kanban/src/main/java/com/estudoserpro/service/TarefaService.java
/home/dtiadj2/estudo-serpro/aplicacao/java/java-sistema-kanban/src/main/java/com/estudoserpro/service/TarefaServiceImp.java
/home/dtiadj2/estudo-serpro/aplicacao/java/java-sistema-kanban/src/main/java/com/estudoserpro/service/TarefaNaoEncontradaException.java
/home/dtiadj2/estudo-serpro/aplicacao/java/java-sistema-kanban/src/main/java/com/estudoserpro/model/Tarefa.java
/home/dtiadj2/estudo-serpro/aplicacao/java/java-sistema-kanban/src/main/java/com/estudoserpro/model/TarefaDAO.java
/home/dtiadj2/estudo-serpro/aplicacao/java/java-sistema-kanban/src/main/java/com/estudoserpro/model/StatusTarefaEnum.java
